APTP Data Cleaning
…
opd_data %>% 
  group_by(Description) %>% 
  summarize(count = n()) %>% 
  mutate(perc = round(count/sum(count), digits = 2)) %>% 
  arrange(desc(count))

## `summarise()` ungrouping output (override with `.groups` argument)

## # A tibble: 358 x 3
##    Description          count  perc
##    <chr>                <int> <dbl>
##  1 ON VIEW              36388  0.08
##  2 911 HANG UP FROM ACC 32707  0.07
##  3 AMBULANCE REQUESTED  22435  0.05
##  4 ALARM-RINGER         16490  0.04
##  5 SECURITY CHECK       15790  0.04
##  6 415 UNKNOWN          12100  0.03
##  7 COMM ORDER           10539  0.02
##  8 911 HANG-UP          10355  0.02
##  9 BEAT INFORMATION     10255  0.02
## 10 AUTO BURGLARY         9073  0.02
## #  with 348 more rows

opd_data %>% 
  filter(Source == "911 CALL") %>% 
  group_by(Description) %>% 
  summarize(count = n()) %>% 
  mutate(perc = round(count/sum(count), digits = 2)) %>% 
  arrange(desc(count))

## `summarise()` ungrouping output (override with `.groups` argument)

## # A tibble: 272 x 3
##    Description          count  perc
##    <chr>                <int> <dbl>
##  1 911 HANG UP FROM ACC 28968  0.18
##  2 AMBULANCE REQUESTED  18683  0.12
##  3 911 HANG-UP           9621  0.06
##  4 415 UNKNOWN           9263  0.06
##  5 MISDIAL               6047  0.04
##  6 POLICE RELATED MATTE  5453  0.03
##  7 MENTALLY ILL          4157  0.03
##  8 AUTO BURGLARY         4154  0.03
##  9 VEHICLE COLLISION/PR  3954  0.02
## 10 DISTURBING THE PEACE  3686  0.02
## #  with 262 more rows

opd_data %>% 
  filter(Source == "DEFAULT - PHONE INIT") %>% 
  group_by(Description) %>% 
  summarize(count = n()) %>% 
  mutate(perc = round(count/sum(count), digits = 2)) %>% 
  arrange(desc(count))

## `summarise()` ungrouping output (override with `.groups` argument)

## # A tibble: 337 x 3
##    Description          count  perc
##    <chr>                <int> <dbl>
##  1 ALARM-RINGER         16123  0.09
##  2 COMM ORDER           10302  0.06
##  3 BEAT INFORMATION      7994  0.04
##  4 AUTO BLOCKING DRIVEW  6447  0.04
##  5 STOLEN VEHICLE        4990  0.03
##  6 LOUD MUSIC            4611  0.03
##  7 AUTO BURGLARY         4281  0.02
##  8 911 HANG UP FROM ACC  3739  0.02
##  9 WELFARE CHECK -- CHE  3735  0.02
## 10 MENTALLY ILL          3733  0.02
## #  with 327 more rows
…
Average response times for 911 calls

opd_data %>% 
  filter(Source == "911 CALL", Priority %in% c(0, 1, 2)) %>% 
  group_by(Description) %>% 
  summarize(Mean_Response = hms::as.hms(mean(response_time, na.rm = TRUE,)),
            count = n()) %>% 
  filter(count >= 5) %>% 
  arrange(Mean_Response)

## `summarise()` ungrouping output (override with `.groups` argument)

## # A tibble: 182 x 3
##    Description          Mean_Response count
##    <chr>                <time>        <int>
##  1 MURDER               03'39.000000"     6
##  2 INVESTIGATE REPORT O 08'48.703704"   701
##  3 AUTO ON FIRE         08'51.142857"   501
##  4 OVERDOSE             09'02.429825"   130
##  5 FIRE                 09'14.472222"  2408
##  6 SUICIDE              09'32.181818"    11
##  7 ASSOCIATED TYPE FROM 10'30.137615"   215
##  8 PERSON SCREAMING     10'31.857430"   599
##  9 EXPLOSION            10'36.238095"    29
## 10 AMBULANCE FOLLOW UP  11'08.684848"   422
## #  with 172 more rows

opd_data %>% 
  filter(Source == "911 CALL", Priority %in% c(0, 1, 2, 3, 4)) %>% 
  group_by(Beat) %>% 
  summarize(Mean_Response = hms::as.hms(mean(response_time, na.rm = TRUE,)),
            count = n()) %>% 
  arrange(desc(Mean_Response))

## `summarise()` ungrouping output (override with `.groups` argument)

## # A tibble: 59 x 3
##    Beat  Mean_Response   count
##    <chr> <time>          <int>
##  1 31Z   04:28:43.113240  1170
##  2 30X   04:13:36.533219  3790
##  3 30Y   03:39:53.411965  4122
##  4 27Y   03:33:15.814440  2973
##  5 29X   03:27:50.585693  3297
##  6 27X   03:21:06.789615  3076
##  7 26Y   03:20:51.745028  5414
##  8 24Y   03:18:20.284777  1857
##  9 32X   03:18:13.432383  2838
## 10 31Y   03:17:11.762751  3330
## #  with 49 more rows
…
